{
  "required": true,
  "package": "com.ifcifc.gameinfo.mixin",
  "compatibilityLevel": "JAVA_8",
  "mixins": [
    "ServerTicks"
  ],
  "client": [
    "MinecraftClientMixin",
    "CurrentFPSMixin",
    "WorldRendererMixin"
  ],
  "server":[

  ],
  "injectors": {
    "defaultRequire": 1
  }
}